<?xml version="1.0" encoding="UTF-8" standalone="no"?>
<!-- Created with Inkscape (http://www.inkscape.org/) -->

<svg
   xmlns:dc="http://purl.org/dc/elements/1.1/"
   xmlns:cc="http://creativecommons.org/ns#"
   xmlns:rdf="http://www.w3.org/1999/02/22-rdf-syntax-ns#"
   xmlns:svg="http://www.w3.org/2000/svg"
   xmlns="http://www.w3.org/2000/svg"
   xmlns:sodipodi="http://sodipodi.sourceforge.net/DTD/sodipodi-0.dtd"
   xmlns:inkscape="http://www.inkscape.org/namespaces/inkscape"
   width="101.48579mm"
   height="71.483398mm"
   viewBox="0 0 101.48579 71.483399"
   version="1.1"
   id="svg8"
   inkscape:version="0.92.4 5da689c313, 2019-01-14"
   sodipodi:docname="store_na_3.svg"
   inkscape:export-filename="/home/glen/phd/aarhus19/store_na_2.png"
   inkscape:export-xdpi="96"
   inkscape:export-ydpi="96">
  <defs
     id="defs2" />
  <sodipodi:namedview
     id="base"
     pagecolor="#ffffff"
     bordercolor="#666666"
     borderopacity="1.0"
     inkscape:pageopacity="0.0"
     inkscape:pageshadow="2"
     inkscape:zoom="1.4142136"
     inkscape:cx="-142.03624"
     inkscape:cy="129.73788"
     inkscape:document-units="mm"
     inkscape:current-layer="g4681"
     showgrid="false"
     inkscape:window-width="1918"
     inkscape:window-height="1042"
     inkscape:window-x="0"
     inkscape:window-y="37"
     inkscape:window-maximized="0"
     fit-margin-top="2"
     fit-margin-left="2"
     fit-margin-right="2"
     fit-margin-bottom="1" />
  <metadata
     id="metadata5">
    <rdf:RDF>
      <cc:Work
         rdf:about="">
        <dc:format>image/svg+xml</dc:format>
        <dc:type
           rdf:resource="http://purl.org/dc/dcmitype/StillImage" />
        <dc:title />
      </cc:Work>
    </rdf:RDF>
  </metadata>
  <g
     inkscape:label="Calque 1"
     inkscape:groupmode="layer"
     id="layer1"
     transform="translate(-0.46882596,-20.481097)">
    <path
       style="fill:#7f007f;fill-opacity:1;stroke:none;stroke-width:0.26458332;stroke-opacity:1"
       id="path4691"
       d="m 46.204835,89.610225 c 0.380757,-0.787519 0.670465,-1.616593 0.940369,-2.447557 0.349435,-1.025372 0.597265,-2.079916 0.931706,-3.110018 0.288576,-0.757584 0.503608,-1.536772 0.726025,-2.31507 0.181483,-0.61826 0.311362,-1.248312 0.426056,-1.881748 0.136027,-0.678067 0.234156,-1.3628 0.33945,-2.046087 0.139173,-0.978392 0.199723,-1.965759 0.294806,-2.949048 0.08379,-0.784866 0.137824,-1.572289 0.167942,-2.360912 -0.0094,-0.459054 0.02522,-0.912254 0.09078,-1.366207 0.141578,-0.796709 0.295928,-1.590916 0.449688,-2.385349 0.157461,-0.720204 0.291216,-1.445924 0.495461,-2.154793 0.230937,-0.751401 0.701144,-1.381112 1.138865,-2.021504 0.53254,-0.778912 1.147289,-1.493329 1.77641,-2.194179 0.574802,-0.679968 1.277731,-1.213337 2.016617,-1.69977 1.281028,-0.867024 2.689058,-1.502328 4.051972,-2.219302 0.76591,-0.363662 1.497137,-0.791858 2.248805,-1.182595 0.882028,-0.476403 1.793062,-0.890632 2.701279,-1.313563 0.167651,-0.0791 0.334349,-0.160245 0.502952,-0.237286 0.526814,-0.240724 1.059847,-0.467456 1.56904,-0.745326 0.184825,-0.10086 0.734372,-0.411475 0.545269,-0.318879 -0.351695,0.172209 -0.689173,0.372047 -1.033761,0.558073 1.238207,-0.863553 2.263071,-1.973295 3.222632,-3.127817 0.980374,-1.197875 1.919899,-2.426552 2.792368,-3.705098 0.70386,-1.086578 1.321763,-2.229168 1.914416,-3.379804 0.480968,-0.858996 0.72521,-1.796113 0.897367,-2.75668 0.191574,-0.955746 0.241421,-1.92364 0.226906,-2.895312 0.01288,-0.568319 -0.063,-1.128358 -0.139438,-1.689346 -0.100319,-0.469953 -0.135416,-0.948108 -0.164632,-1.42658 -0.02601,-0.427445 -0.03,-0.855766 -0.04087,-1.283745 -0.0063,-0.221647 -0.0057,-0.443302 -0.0042,-0.665001 0.0011,-0.203253 -0.0011,-0.406509 -0.0011,-0.609762 0.01447,-0.181895 0.0082,-0.332512 -0.07525,-0.493191 -0.06,-0.116641 -0.103344,-0.239178 -0.141396,-0.364289 0,0 1.744795,-0.948917 1.744795,-0.948917 v 0 c 0.02765,0.113329 0.06204,0.223935 0.117512,0.32734 0.111246,0.203411 0.142303,0.34486 0.121856,0.578516 -1.96e-4,0.203899 -0.0024,0.407797 -0.0021,0.611696 7.93e-4,0.223036 -5.3e-4,0.445997 -0.0061,0.668972 -0.0075,0.428747 -0.0037,0.857703 0.01336,1.286198 0.02492,0.473149 0.06842,0.944708 0.173093,1.407864 0.06266,0.575836 0.125651,1.151255 0.105254,1.732018 -2.65e-4,0.982863 -0.04144,1.964949 -0.227983,2.933028 -0.156552,0.980855 -0.388565,1.940925 -0.881994,2.814359 -0.608264,1.160947 -1.244561,2.311863 -1.946852,3.418179 -0.871217,1.285883 -1.812182,2.519873 -2.793706,3.723693 -0.944425,1.164354 -1.961026,2.277869 -3.17567,3.168401 -0.89667,0.539499 -1.775346,1.111568 -2.698898,1.603632 -0.514927,0.274351 -1.051123,0.504327 -1.580454,0.7484 -0.169243,0.07804 -0.337153,0.158927 -0.505732,0.238392 -0.914443,0.426387 -1.826432,0.855853 -2.71449,1.335752 -0.748679,0.398044 -1.487792,0.813647 -2.251195,1.183693 -0.396528,0.204927 -0.797435,0.399798 -1.196152,0.600257 -0.140044,0.07041 -0.550312,0.29957 -0.417692,0.216011 0.26828,-0.169029 1.972768,-1.166346 0.820251,-0.481753 -0.738982,0.471429 -1.45196,0.98216 -2.029114,1.65036 -0.198347,0.221985 -0.408289,0.433496 -0.604811,0.6571 -0.423606,0.481981 -0.809834,0.998885 -1.187958,1.516529 -0.422431,0.624321 -0.880832,1.233188 -1.130522,1.952707 -0.216289,0.707043 -0.376481,1.427628 -0.528929,2.150848 -0.157614,0.783698 -0.300318,1.570164 -0.422253,2.360189 -0.06153,0.448561 -0.08821,0.89849 -0.100709,1.35097 -0.04443,0.800391 -0.131336,1.597303 -0.213206,2.394546 -0.0985,0.980604 -0.144947,1.965838 -0.264822,2.944259 -0.09495,0.682808 -0.176776,1.368266 -0.321402,2.04297 -0.107233,0.641709 -0.239173,1.277747 -0.419794,1.903259 -0.238299,0.783386 -0.44905,1.574297 -0.754877,2.33572 -0.34808,1.02842 -0.605486,2.081697 -0.944171,3.112794 -0.251391,0.822748 -0.542263,1.631278 -0.844156,2.436704 0,0 -1.797081,0.813059 -1.797081,0.813059 z"
       inkscape:connector-curvature="0" />
    <text
       xml:space="preserve"
       style="font-style:normal;font-variant:normal;font-weight:normal;font-stretch:normal;font-size:11.28888893px;line-height:1.25;font-family:sans-serif;-inkscape-font-specification:'sans-serif, Normal';font-variant-ligatures:normal;font-variant-caps:normal;font-variant-numeric:normal;font-feature-settings:normal;text-align:start;letter-spacing:0px;word-spacing:0px;writing-mode:lr-tb;text-anchor:start;fill:#000000;fill-opacity:1;stroke:none;stroke-width:0.26458332"
       x="18.409767"
       y="51.153675"
       id="text3715"><tspan
         sodipodi:role="line"
         id="tspan3713"
         x="18.409767"
         y="51.153675"
         style="font-style:normal;font-variant:normal;font-weight:normal;font-stretch:normal;font-size:11.28888893px;font-family:'Latin Modern Sans';-inkscape-font-specification:'Latin Modern Sans, Normal';font-variant-ligatures:normal;font-variant-caps:normal;font-variant-numeric:normal;font-feature-settings:normal;text-align:start;writing-mode:lr-tb;text-anchor:start;stroke-width:0.26458332"><tspan
   style="font-style:normal;font-variant:normal;font-weight:normal;font-stretch:normal;font-size:11.28888893px;font-family:'Latin Modern Mono';-inkscape-font-specification:'Latin Modern Mono, Normal';font-variant-ligatures:normal;font-variant-caps:normal;font-variant-numeric:normal;font-feature-settings:normal;text-align:start;writing-mode:lr-tb;text-anchor:start"
   id="tspan3743">x</tspan> :</tspan></text>
    <text
       xml:space="preserve"
       style="font-style:normal;font-variant:normal;font-weight:normal;font-stretch:normal;font-size:11.28888893px;line-height:1.25;font-family:sans-serif;-inkscape-font-specification:'sans-serif, Normal';font-variant-ligatures:normal;font-variant-caps:normal;font-variant-numeric:normal;font-feature-settings:normal;text-align:start;letter-spacing:0px;word-spacing:0px;writing-mode:lr-tb;text-anchor:start;fill:#000000;fill-opacity:1;stroke:none;stroke-width:0.26458332"
       x="18.409767"
       y="73.02813"
       id="text3719"><tspan
         sodipodi:role="line"
         id="tspan3717"
         x="18.409767"
         y="73.02813"
         style="font-style:normal;font-variant:normal;font-weight:normal;font-stretch:normal;font-size:11.28888893px;font-family:'Latin Modern Sans';-inkscape-font-specification:'Latin Modern Sans, Normal';font-variant-ligatures:normal;font-variant-caps:normal;font-variant-numeric:normal;font-feature-settings:normal;text-align:start;writing-mode:lr-tb;text-anchor:start;stroke-width:0.26458332"><tspan
   style="font-style:normal;font-variant:normal;font-weight:normal;font-stretch:normal;font-size:11.28888893px;font-family:'Latin Modern Mono';-inkscape-font-specification:'Latin Modern Mono, Normal';font-variant-ligatures:normal;font-variant-caps:normal;font-variant-numeric:normal;font-feature-settings:normal;text-align:start;writing-mode:lr-tb;text-anchor:start"
   id="tspan3745">y</tspan> :</tspan></text>
    <text
       xml:space="preserve"
       style="font-style:normal;font-weight:normal;font-size:10.58333302px;line-height:1.25;font-family:sans-serif;letter-spacing:0px;word-spacing:0px;fill:#000000;fill-opacity:1;stroke:none;stroke-width:0.26458332"
       x="78.042702"
       y="107.77317"
       id="text3731"><tspan
         sodipodi:role="line"
         id="tspan3729"
         x="78.042702"
         y="117.13694"
         style="stroke-width:0.26458332" /></text>
    <path
       style="fill:#ff7f00;fill-opacity:1;stroke:none;stroke-width:0.26458332;stroke-opacity:1"
       id="path4703"
       d="m 43.796719,32.154672 c 0.136375,0.503431 0.343752,0.983554 0.512371,1.476433 0.115584,0.459105 0.261882,0.909865 0.381868,1.367586 0.154236,0.477224 0.242435,0.96987 0.333158,1.461773 0.09446,0.52405 0.197649,1.046988 0.323514,1.56446 0.102968,0.313433 0.131064,0.63918 0.164492,0.964827 0.06826,0.47611 0.145407,0.951219 0.236317,1.423585 0.09113,0.376373 0.199269,0.748316 0.259969,1.131181 0.06703,0.275627 0.107945,0.556094 0.15707,0.835139 0.05603,0.327644 0.11592,0.653465 0.184817,0.978733 0.05868,0.305256 0.06095,0.616297 0.124788,0.920332 0.0675,0.267931 0.08068,0.544227 0.09826,0.818693 0.0028,0.284115 0.0662,0.562694 0.101375,0.843819 0.03954,0.290473 0.02463,0.584147 0.05022,0.875358 0.04661,0.295868 0.08875,0.591731 0.105939,0.890879 0.01,0.29858 0.07434,0.591873 0.110429,0.888045 0.06643,0.332126 0.115419,0.666956 0.174951,1.000495 0.05249,0.389792 0.171365,0.764509 0.267713,1.144392 0.07883,0.353012 0.134779,0.710742 0.211862,1.064062 0.133025,0.418618 0.11175,0.853604 0.120182,1.285808 0.02439,0.37754 0.165129,0.734693 0.319442,1.07627 0.104029,0.244893 0.210463,0.488648 0.340924,0.720952 0.157895,0.238766 0.280828,0.494962 0.465629,0.715238 0.211598,0.219144 0.401929,0.457954 0.584132,0.701619 0.178829,0.228854 0.440166,0.356643 0.669932,0.52496 0.326734,0.255709 0.674468,0.485921 1.028888,0.701461 0.283425,0.139533 0.58216,0.243451 0.875745,0.359531 0.303694,0.079 0.589221,0.210794 0.888799,0.302237 0.322416,0.09916 0.613029,0.261585 0.909208,0.418311 0.353103,0.111085 0.697484,0.250468 1.050386,0.363667 0.320646,0.117306 0.64131,0.231114 0.953659,0.369845 0.283588,0.172406 0.59478,0.286573 0.900295,0.412848 0.445349,0.150183 0.830418,0.419275 1.245269,0.630793 0.266298,0.171649 0.576019,0.236813 0.863867,0.359593 0.425252,0.154334 0.836734,0.353539 1.239383,0.560189 0.302225,0.120565 0.582564,0.29504 0.890031,0.402339 0.248479,0.0376 0.482553,0.11008 0.7096,0.217908 0.336076,0.141541 0.661567,0.305017 0.991346,0.460314 0.286798,0.153995 0.589036,0.269071 0.873069,0.429265 0.520108,0.26338 0.991786,0.614265 1.450242,0.971902 0.363842,0.315238 0.733957,0.620816 1.134002,0.889064 0.28198,0.206539 0.525515,0.455461 0.777272,0.696521 0.453382,0.470331 0.87744,0.966975 1.309309,1.456713 0.252399,0.298974 0.55372,0.549897 0.818136,0.837068 0.275958,0.291351 0.513871,0.614725 0.755738,0.934024 0.282342,0.38784 0.579027,0.767003 0.807024,1.190323 0.177739,0.342361 0.390083,0.666534 0.605652,0.986103 0.266518,0.439943 0.520414,0.888915 0.812424,1.312642 0.184696,0.288087 0.402061,0.553345 0.562073,0.856443 0.210982,0.463786 0.423863,0.926092 0.643594,1.386399 0.25446,0.495681 0.481452,1.004914 0.72444,1.506243 0.184346,0.326142 0.344416,0.66326 0.484925,1.010489 0.161727,0.519054 0.375066,1.017791 0.589381,1.516608 0.138888,0.338156 0.282681,0.672615 0.408842,1.015595 0.08939,0.336169 0.186529,0.668626 0.305716,0.99573 0.107907,0.328718 0.239744,0.648631 0.357515,0.97363 0.08247,0.290062 0.202068,0.567282 0.298519,0.852492 0.08886,0.291921 0.1827,0.580433 0.238067,0.880989 0.04853,0.256257 0.03432,0.518353 0.06466,0.776155 0.07718,0.30598 0.160517,0.610013 0.27242,0.905267 0.122198,0.261159 0.166836,0.545142 0.237083,0.821682 0.0718,0.232796 0.152601,0.464783 0.250801,0.688057 0.107627,0.222567 0.123272,0.468291 0.162975,0.707749 0.07249,0.270354 0.158938,0.537057 0.238353,0.805625 0.09097,0.255889 0.127656,0.523245 0.153217,0.792001 0,0 -1.757008,0.911259 -1.757008,0.911259 v 0 c -0.01257,-0.257431 -0.04365,-0.513212 -0.122502,-0.759851 -0.08195,-0.273921 -0.178048,-0.54369 -0.255357,-0.818473 -0.04855,-0.22343 -0.0457,-0.458335 -0.143806,-0.67002 -0.09762,-0.233744 -0.188238,-0.47148 -0.265065,-0.712505 -0.07517,-0.268636 -0.0921,-0.553823 -0.217416,-0.808889 -0.119126,-0.306692 -0.198676,-0.624943 -0.303155,-0.936527 -0.04695,-0.255516 -0.01241,-0.519348 -0.05742,-0.776438 -0.04565,-0.29269 -0.133937,-0.571548 -0.222189,-0.853604 -0.098,-0.283507 -0.211378,-0.562105 -0.292113,-0.85158 -0.118782,-0.324697 -0.249068,-0.645007 -0.351576,-0.975641 -0.122314,-0.324871 -0.2316,-0.653378 -0.317624,-0.989608 -0.125556,-0.340881 -0.240517,-0.68572 -0.37833,-1.022421 -0.206558,-0.501862 -0.427191,-0.997794 -0.60338,-1.511734 -0.139306,-0.343538 -0.314238,-0.669816 -0.474263,-1.003678 -0.23354,-0.505492 -0.451988,-1.01845 -0.705562,-1.514412 -0.225565,-0.453631 -0.450265,-0.90714 -0.671176,-1.362784 -0.158515,-0.296045 -0.373285,-0.555905 -0.541888,-0.846209 -0.276048,-0.432837 -0.534027,-0.877443 -0.806223,-1.312817 -0.224652,-0.323191 -0.459229,-0.643284 -0.628538,-1.000199 -0.20977,-0.419386 -0.493671,-0.795028 -0.776373,-1.167493 -0.246549,-0.31097 -0.489034,-0.625298 -0.770355,-0.906349 -0.261898,-0.287075 -0.538784,-0.56071 -0.78205,-0.864473 -0.423437,-0.490333 -0.847842,-0.98094 -1.318903,-1.426871 -0.254119,-0.228386 -0.50323,-0.461523 -0.776833,-0.666869 -0.382966,-0.288362 -0.74214,-0.603708 -1.105254,-0.916302 -0.459084,-0.350999 -0.934871,-0.685991 -1.46285,-0.9261 -0.286453,-0.147339 -0.587547,-0.263594 -0.868659,-0.421802 -0.324932,-0.16148 -0.65419,-0.313973 -0.99056,-0.45026 -0.233854,-0.08956 -0.478687,-0.129352 -0.715206,-0.209058 C 59.000473,62.676071 58.71676,62.514463 58.420459,62.379714 58.01672,62.177686 57.607278,61.982521 57.177012,61.843311 56.87893,61.732752 56.574821,61.637626 56.306115,61.461453 55.906597,61.235182 55.520972,60.983767 55.077877,60.846038 54.764758,60.724973 54.45251,60.602523 54.160725,60.43468 53.855211,60.296273 53.536208,60.19357 53.222047,60.07705 52.86518,59.948976 52.50378,59.831017 52.153943,59.686546 51.866555,59.531101 51.571825,59.397944 51.259392,59.299792 50.960373,59.195337 50.664704,59.081521 50.362206,58.986933 50.063533,58.862946 49.751851,58.764886 49.475695,58.592846 49.125466,58.364844 48.776531,58.134114 48.441518,57.884078 48.185542,57.715369 47.911047,57.564763 47.7269,57.311334 c -0.177887,-0.242882 -0.364292,-0.479671 -0.572598,-0.697545 -0.185743,-0.23282 -0.329745,-0.490966 -0.494554,-0.738253 -0.132747,-0.237887 -0.229661,-0.493332 -0.335796,-0.743598 -0.164491,-0.365866 -0.308422,-0.748345 -0.347779,-1.150226 -0.01069,-0.419693 0.02606,-0.840618 -0.108492,-1.247608 -0.08247,-0.351015 -0.141478,-0.707258 -0.209452,-1.061234 -0.09198,-0.38508 -0.220107,-0.761952 -0.271471,-1.156081 -0.06223,-0.335917 -0.121282,-0.672073 -0.191815,-1.006406 -0.03168,-0.300688 -0.09996,-0.596508 -0.114059,-0.8983 -0.0177,-0.295796 -0.04842,-0.590153 -0.100507,-0.882097 -0.03831,-0.289369 -0.02148,-0.582155 -0.05309,-0.872585 -0.03111,-0.286057 -0.0965,-0.567984 -0.109411,-0.855171 -0.0078,-0.265168 -0.02336,-0.531153 -0.08417,-0.790334 -0.06428,-0.306001 -0.06727,-0.616392 -0.118991,-0.924621 -0.06427,-0.326064 -0.130334,-0.650814 -0.187616,-0.978085 -0.06256,-0.279889 -0.0823,-0.568436 -0.162394,-0.845262 -0.04703,-0.38423 -0.139842,-0.759613 -0.234402,-1.13457 -0.08709,-0.474908 -0.173643,-0.949952 -0.255828,-1.425509 -0.05034,-0.317201 -0.05954,-0.640778 -0.147511,-0.952145 -0.116035,-0.523835 -0.216254,-1.050991 -0.313547,-1.578605 -0.09561,-0.485711 -0.189394,-0.971034 -0.341865,-1.443185 -0.11439,-0.455539 -0.26289,-0.901841 -0.363117,-1.361192 -0.16473,-0.492538 -0.35864,-0.97437 -0.547695,-1.45797 0,0 1.735978,-0.95608 1.735979,-0.95608 z"
       inkscape:connector-curvature="0" />
    <g
       id="g4657">
      <circle
         style="fill:#e6e6e6;fill-opacity:1;stroke:none;stroke-width:0.26458332"
         r="7.6540179"
         cy="49.520088"
         cx="47.908482"
         id="path3830" />
      <g
         transform="translate(6.4255952)"
         id="g3788">
        <text
           xml:space="preserve"
           style="font-style:oblique;font-variant:normal;font-weight:normal;font-stretch:normal;font-size:11.28888893px;line-height:1.25;font-family:'Latin Modern Sans';-inkscape-font-specification:'Latin Modern Sans, Oblique';font-variant-ligatures:normal;font-variant-caps:normal;font-variant-numeric:normal;font-feature-settings:normal;text-align:start;letter-spacing:0px;word-spacing:0px;writing-mode:lr-tb;text-anchor:start;fill:#000000;fill-opacity:1;stroke:none;stroke-width:0.26458332"
           x="36.724724"
           y="51.153675"
           id="text3727"><tspan
             sodipodi:role="line"
             id="tspan3725"
             x="36.724724"
             y="51.153675"
             style="font-style:oblique;font-variant:normal;font-weight:normal;font-stretch:normal;font-size:11.28888893px;font-family:'Latin Modern Sans';-inkscape-font-specification:'Latin Modern Sans, Oblique';font-variant-ligatures:normal;font-variant-caps:normal;font-variant-numeric:normal;font-feature-settings:normal;text-align:start;writing-mode:lr-tb;text-anchor:start;stroke-width:0.26458332">x </tspan></text>
        <text
           xml:space="preserve"
           style="font-style:oblique;font-variant:normal;font-weight:normal;font-stretch:normal;font-size:8.46666622px;line-height:1.25;font-family:'Latin Modern Sans';-inkscape-font-specification:'Latin Modern Sans, Oblique';font-variant-ligatures:normal;font-variant-caps:normal;font-variant-numeric:normal;font-feature-settings:normal;text-align:start;letter-spacing:0px;word-spacing:0px;writing-mode:lr-tb;text-anchor:start;fill:#000000;fill-opacity:1;stroke:none;stroke-width:0.26458332"
           x="41.199406"
           y="54.339287"
           id="text3741"><tspan
             sodipodi:role="line"
             id="tspan3739"
             x="41.199406"
             y="54.339287"
             style="font-style:oblique;font-variant:normal;font-weight:normal;font-stretch:normal;font-size:8.46666622px;font-family:'Latin Modern Sans';-inkscape-font-specification:'Latin Modern Sans, Oblique';font-variant-ligatures:normal;font-variant-caps:normal;font-variant-numeric:normal;font-feature-settings:normal;text-align:start;writing-mode:lr-tb;text-anchor:start;stroke-width:0.26458332">0</tspan></text>
      </g>
    </g>
    <flowRoot
       xml:space="preserve"
       id="flowRoot3747"
       style="font-style:normal;font-weight:normal;font-size:40px;line-height:1.25;font-family:sans-serif;letter-spacing:0px;word-spacing:0px;fill:#000000;fill-opacity:1;stroke:none"
       transform="scale(0.26458333)"><flowRegion
         id="flowRegion3749"><rect
           id="rect3751"
           width="91.428574"
           height="152.14285"
           x="41.42857"
           y="157.51968" /></flowRegion><flowPara
         id="flowPara3753" /></flowRoot>    <g
       id="g4665">
      <circle
         id="circle4637"
         cx="71.909966"
         cy="49.520088"
         r="7.6540179"
         style="fill:#e6e6e6;fill-opacity:1;stroke:none;stroke-width:0.26458332" />
      <g
         transform="translate(30.427083)"
         id="g3798">
        <text
           id="text3792"
           y="51.153675"
           x="36.724724"
           style="font-style:oblique;font-variant:normal;font-weight:normal;font-stretch:normal;font-size:11.28888893px;line-height:1.25;font-family:'Latin Modern Sans';-inkscape-font-specification:'Latin Modern Sans, Oblique';font-variant-ligatures:normal;font-variant-caps:normal;font-variant-numeric:normal;font-feature-settings:normal;text-align:start;letter-spacing:0px;word-spacing:0px;writing-mode:lr-tb;text-anchor:start;fill:#000000;fill-opacity:1;stroke:none;stroke-width:0.26458332"
           xml:space="preserve"><tspan
             style="font-style:oblique;font-variant:normal;font-weight:normal;font-stretch:normal;font-size:11.28888893px;font-family:'Latin Modern Sans';-inkscape-font-specification:'Latin Modern Sans, Oblique';font-variant-ligatures:normal;font-variant-caps:normal;font-variant-numeric:normal;font-feature-settings:normal;text-align:start;writing-mode:lr-tb;text-anchor:start;stroke-width:0.26458332"
             y="51.153675"
             x="36.724724"
             id="tspan3790"
             sodipodi:role="line">x </tspan></text>
        <text
           id="text3796"
           y="54.339287"
           x="41.199406"
           style="font-style:oblique;font-variant:normal;font-weight:normal;font-stretch:normal;font-size:8.46666622px;line-height:1.25;font-family:'Latin Modern Sans';-inkscape-font-specification:'Latin Modern Sans, Oblique';font-variant-ligatures:normal;font-variant-caps:normal;font-variant-numeric:normal;font-feature-settings:normal;text-align:start;letter-spacing:0px;word-spacing:0px;writing-mode:lr-tb;text-anchor:start;fill:#000000;fill-opacity:1;stroke:none;stroke-width:0.26458332"
           xml:space="preserve"><tspan
             style="font-style:oblique;font-variant:normal;font-weight:normal;font-stretch:normal;font-size:8.46666622px;font-family:'Latin Modern Sans';-inkscape-font-specification:'Latin Modern Sans, Oblique';font-variant-ligatures:normal;font-variant-caps:normal;font-variant-numeric:normal;font-feature-settings:normal;text-align:start;writing-mode:lr-tb;text-anchor:start;stroke-width:0.26458332"
             y="54.339287"
             x="41.199406"
             id="tspan3794"
             sodipodi:role="line">1</tspan></text>
      </g>
    </g>
    <g
       id="g4681">
      <circle
         style="fill:#96c800;fill-opacity:1;stroke:none;stroke-width:0.26458332"
         r="7.6540179"
         cy="71.442711"
         cx="47.908482"
         id="circle4639" />
      <g
         id="g3818"
         transform="translate(6.8035719,21.733631)">
        <text
           id="text3812"
           y="51.153675"
           x="36.724724"
           style="font-style:oblique;font-variant:normal;font-weight:normal;font-stretch:normal;font-size:11.28888893px;line-height:1.25;font-family:'Latin Modern Sans';-inkscape-font-specification:'Latin Modern Sans, Oblique';font-variant-ligatures:normal;font-variant-caps:normal;font-variant-numeric:normal;font-feature-settings:normal;text-align:start;letter-spacing:0px;word-spacing:0px;writing-mode:lr-tb;text-anchor:start;fill:#000000;fill-opacity:1;stroke:none;stroke-width:0.26458332"
           xml:space="preserve"><tspan
             style="font-style:oblique;font-variant:normal;font-weight:normal;font-stretch:normal;font-size:11.28888893px;font-family:'Latin Modern Sans';-inkscape-font-specification:'Latin Modern Sans, Oblique';font-variant-ligatures:normal;font-variant-caps:normal;font-variant-numeric:normal;font-feature-settings:normal;text-align:start;writing-mode:lr-tb;text-anchor:start;stroke-width:0.26458332"
             y="51.153675"
             x="36.724724"
             id="tspan3810"
             sodipodi:role="line">y </tspan></text>
        <text
           id="text3816"
           y="54.339287"
           x="40.065475"
           style="font-style:oblique;font-variant:normal;font-weight:normal;font-stretch:normal;font-size:8.46666622px;line-height:1.25;font-family:'Latin Modern Sans';-inkscape-font-specification:'Latin Modern Sans, Oblique';font-variant-ligatures:normal;font-variant-caps:normal;font-variant-numeric:normal;font-feature-settings:normal;text-align:start;letter-spacing:0px;word-spacing:0px;writing-mode:lr-tb;text-anchor:start;fill:#000000;fill-opacity:1;stroke:none;stroke-width:0.26458332"
           xml:space="preserve"><tspan
             style="font-style:oblique;font-variant:normal;font-weight:normal;font-stretch:normal;font-size:8.46666622px;font-family:'Latin Modern Sans';-inkscape-font-specification:'Latin Modern Sans, Oblique';font-variant-ligatures:normal;font-variant-caps:normal;font-variant-numeric:normal;font-feature-settings:normal;text-align:start;writing-mode:lr-tb;text-anchor:start;stroke-width:0.26458332"
             y="54.339287"
             x="40.065475"
             id="tspan3814"
             sodipodi:role="line">0</tspan></text>
      </g>
      <rect
         style="opacity:0.93999999;fill:none;fill-opacity:1;stroke:none;stroke-width:0.26458332;stroke-opacity:1"
         id="rect6022"
         width="101.48601"
         height="71.483002"
         x="0.46882597"
         y="20.481096" />
    </g>
    <g
       id="g4673">
      <circle
         style="fill:#96c800;fill-opacity:1;stroke:none;stroke-width:0.26458332"
         r="7.6540179"
         cy="71.442711"
         cx="71.909966"
         id="circle4641" />
      <g
         transform="translate(30.994047,21.733631)"
         id="g3828">
        <text
           xml:space="preserve"
           style="font-style:oblique;font-variant:normal;font-weight:normal;font-stretch:normal;font-size:11.28888893px;line-height:1.25;font-family:'Latin Modern Sans';-inkscape-font-specification:'Latin Modern Sans, Oblique';font-variant-ligatures:normal;font-variant-caps:normal;font-variant-numeric:normal;font-feature-settings:normal;text-align:start;letter-spacing:0px;word-spacing:0px;writing-mode:lr-tb;text-anchor:start;fill:#000000;fill-opacity:1;stroke:none;stroke-width:0.26458332"
           x="36.724724"
           y="51.153675"
           id="text3822"><tspan
             sodipodi:role="line"
             id="tspan3820"
             x="36.724724"
             y="51.153675"
             style="font-style:oblique;font-variant:normal;font-weight:normal;font-stretch:normal;font-size:11.28888893px;font-family:'Latin Modern Sans';-inkscape-font-specification:'Latin Modern Sans, Oblique';font-variant-ligatures:normal;font-variant-caps:normal;font-variant-numeric:normal;font-feature-settings:normal;text-align:start;writing-mode:lr-tb;text-anchor:start;stroke-width:0.26458332">y </tspan></text>
        <text
           xml:space="preserve"
           style="font-style:oblique;font-variant:normal;font-weight:normal;font-stretch:normal;font-size:8.46666622px;line-height:1.25;font-family:'Latin Modern Sans';-inkscape-font-specification:'Latin Modern Sans, Oblique';font-variant-ligatures:normal;font-variant-caps:normal;font-variant-numeric:normal;font-feature-settings:normal;text-align:start;letter-spacing:0px;word-spacing:0px;writing-mode:lr-tb;text-anchor:start;fill:#000000;fill-opacity:1;stroke:none;stroke-width:0.26458332"
           x="40.065475"
           y="54.339287"
           id="text3826"><tspan
             sodipodi:role="line"
             id="tspan3824"
             x="40.065475"
             y="54.339287"
             style="font-style:oblique;font-variant:normal;font-weight:normal;font-stretch:normal;font-size:8.46666622px;font-family:'Latin Modern Sans';-inkscape-font-specification:'Latin Modern Sans, Oblique';font-variant-ligatures:normal;font-variant-caps:normal;font-variant-numeric:normal;font-feature-settings:normal;text-align:start;writing-mode:lr-tb;text-anchor:start;stroke-width:0.26458332">1</tspan></text>
      </g>
    </g>
    <text
       id="text4711"
       y="30.315586"
       x="2.2543371"
       style="font-style:normal;font-variant:normal;font-weight:normal;font-stretch:normal;font-size:11.28888893px;line-height:1.25;font-family:'Latin Modern Sans';-inkscape-font-specification:'Latin Modern Sans, Normal';font-variant-ligatures:normal;font-variant-caps:normal;font-variant-numeric:normal;font-feature-settings:normal;text-align:start;letter-spacing:0px;word-spacing:0px;writing-mode:lr-tb;text-anchor:start;fill:#ff7f00;fill-opacity:1;stroke:none;stroke-width:0.26458332"
       xml:space="preserve"><tspan
         style="font-style:normal;font-variant:normal;font-weight:normal;font-stretch:normal;font-size:11.28888893px;font-family:'Latin Modern Sans';-inkscape-font-specification:'Latin Modern Sans, Normal';font-variant-ligatures:normal;font-variant-caps:normal;font-variant-numeric:normal;font-feature-settings:normal;text-align:start;writing-mode:lr-tb;text-anchor:start;fill:#ff7f00;fill-opacity:1;stroke-width:0.26458332"
         y="30.315586"
         x="2.2543371"
         id="tspan4709"
         sodipodi:role="line">thread B</tspan></text>
    <text
       id="text4715"
       y="30.315586"
       x="58.942204"
       style="font-style:normal;font-variant:normal;font-weight:normal;font-stretch:normal;font-size:11.28888893px;line-height:1.25;font-family:'Latin Modern Sans';-inkscape-font-specification:'Latin Modern Sans, Normal';font-variant-ligatures:normal;font-variant-caps:normal;font-variant-numeric:normal;font-feature-settings:normal;text-align:start;letter-spacing:0px;word-spacing:0px;writing-mode:lr-tb;text-anchor:start;fill:#7f007f;fill-opacity:1;stroke:none;stroke-width:0.26458332"
       xml:space="preserve"><tspan
         style="font-style:normal;font-variant:normal;font-weight:normal;font-stretch:normal;font-size:11.28888893px;font-family:'Latin Modern Sans';-inkscape-font-specification:'Latin Modern Sans, Normal';font-variant-ligatures:normal;font-variant-caps:normal;font-variant-numeric:normal;font-feature-settings:normal;text-align:start;writing-mode:lr-tb;text-anchor:start;fill:#7f007f;fill-opacity:1;stroke-width:0.26458332"
         y="30.315586"
         x="58.942204"
         id="tspan4713"
         sodipodi:role="line">thread A</tspan></text>
  </g>
</svg>
