<?xml version="1.0" encoding="UTF-8" standalone="no"?>
<!-- Created with Inkscape (http://www.inkscape.org/) -->

<svg
   xmlns:dc="http://purl.org/dc/elements/1.1/"
   xmlns:cc="http://creativecommons.org/ns#"
   xmlns:rdf="http://www.w3.org/1999/02/22-rdf-syntax-ns#"
   xmlns:svg="http://www.w3.org/2000/svg"
   xmlns="http://www.w3.org/2000/svg"
   xmlns:sodipodi="http://sodipodi.sourceforge.net/DTD/sodipodi-0.dtd"
   xmlns:inkscape="http://www.inkscape.org/namespaces/inkscape"
   width="114.46985mm"
   height="59.596069mm"
   viewBox="0 0 114.46985 59.59607"
   version="1.1"
   id="svg8"
   inkscape:version="0.92.4 5da689c313, 2019-01-14"
   sodipodi:docname="store_at.svg"
   inkscape:export-filename="/home/glen/phd/aarhus19/store_na_0.png"
   inkscape:export-xdpi="96"
   inkscape:export-ydpi="96">
  <defs
     id="defs2" />
  <sodipodi:namedview
     id="base"
     pagecolor="#ffffff"
     bordercolor="#666666"
     borderopacity="1.0"
     inkscape:pageopacity="0.0"
     inkscape:pageshadow="2"
     inkscape:zoom="1.4142136"
     inkscape:cx="110.89452"
     inkscape:cy="160.66324"
     inkscape:document-units="mm"
     inkscape:current-layer="layer1"
     showgrid="false"
     inkscape:window-width="1918"
     inkscape:window-height="1042"
     inkscape:window-x="0"
     inkscape:window-y="37"
     inkscape:window-maximized="0"
     fit-margin-top="2"
     fit-margin-left="2"
     fit-margin-right="2"
     fit-margin-bottom="1" />
  <metadata
     id="metadata5">
    <rdf:RDF>
      <cc:Work
         rdf:about="">
        <dc:format>image/svg+xml</dc:format>
        <dc:type
           rdf:resource="http://purl.org/dc/dcmitype/StillImage" />
        <dc:title />
      </cc:Work>
    </rdf:RDF>
  </metadata>
  <g
     inkscape:label="Calque 1"
     inkscape:groupmode="layer"
     id="layer1"
     transform="translate(-0.46882596,-7.6380692)">
    <g
       id="g10024"
       transform="translate(24.341666)">
      <path
         inkscape:connector-curvature="0"
         d="m 52.311017,18.169268 c 0.0972,0.72365 0.0363,1.453742 0.0095,2.179921 -0.0085,0.909057 -0.06233,1.814377 -0.131509,2.7204 -0.05359,0.872441 -0.08607,1.744232 -0.202419,2.611188 -0.123312,0.738909 -0.199965,1.482712 -0.241613,2.230266 -0.02463,0.546556 -0.01923,1.093658 -0.02326,1.640566 0.01736,0.724365 -0.04045,1.44522 -0.09526,2.166684 -0.08007,0.809824 -0.225888,1.611469 -0.373935,2.411141 -0.12301,0.721765 -0.267658,1.4401 -0.368806,2.165413 -0.07401,0.685927 -0.09081,1.37503 -0.155636,2.061873 -0.155371,0.909709 -0.216299,1.829596 -0.30545,2.746723 -0.08581,0.716085 -0.146937,1.434619 -0.177195,2.155152 0.0047,0.570771 -0.05884,1.135761 -0.1495,1.6983 -0.113487,0.70276 -0.249399,1.40114 -0.389329,2.098989 -0.215842,0.88311 -0.384262,1.773272 -0.535151,2.669309 -0.121629,0.830744 -0.262795,1.657964 -0.41066,2.484404 -0.133599,0.971465 -0.332891,1.931884 -0.52097,2.893784 -0.234587,0.930114 -0.325848,1.882455 -0.43375,2.832376 -0.07598,0.786992 -0.178623,1.568984 -0.340847,2.342962 -0.110731,0.543925 -0.261837,1.076814 -0.344233,1.626266 -0.04579,0.409345 -0.138674,0.81211 -0.218969,1.215922 -0.08936,0.447612 -0.238917,0.878793 -0.327623,1.326608 -0.03625,0.196106 -0.04828,0.395115 -0.07325,0.592619 0,0 -2.509631,1.194004 -2.509631,1.194004 v 0 c 0.09034,-0.179018 0.05316,-0.387435 0.104746,-0.580057 0.07712,-0.454755 0.225184,-0.887301 0.330708,-1.334675 0.08502,-0.399222 0.146259,-0.803949 0.22947,-1.202801 0.07785,-0.561507 0.223062,-1.103265 0.352237,-1.653976 0.18469,-0.767416 0.310216,-1.544323 0.378963,-2.331318 0.12415,-0.95445 0.18955,-1.919343 0.435787,-2.854174 0.182465,-0.95853 0.398725,-1.9123 0.510871,-2.88285 0.137057,-0.828413 0.288832,-1.654104 0.410662,-2.485051 0.161108,-0.892929 0.307954,-1.787216 0.525079,-2.668966 0.124743,-0.694378 0.268965,-1.385062 0.370451,-2.083405 0.09681,-0.550695 0.161338,-1.108654 0.16251,-1.668226 0.03806,-0.731445 0.10876,-1.460189 0.203467,-2.18656 0.107617,-0.91047 0.141526,-1.82897 0.291129,-2.734882 0.06155,-0.689088 0.07726,-1.379613 0.143836,-2.068311 0.09271,-0.733375 0.254415,-1.454803 0.371871,-2.18435 0.157324,-0.79046 0.295603,-1.586071 0.393793,-2.386101 0.05188,-0.710193 0.103957,-1.418921 0.07008,-2.131563 -0.003,-0.554288 0.006,-1.108712 0.03384,-1.662376 0.04069,-0.757787 0.115149,-1.513474 0.251854,-2.260564 0.1236,-0.862421 0.166862,-1.728771 0.212799,-2.598102 0.07092,-0.902666 0.136443,-1.803839 0.137179,-2.71003 0.02096,-0.693765 0.08474,-1.401304 -0.05241,-2.086356 0,0 2.450552,-1.310176 2.450552,-1.310176 z"
         id="path10016"
         style="fill:#007f7f;fill-opacity:1;stroke:none;stroke-width:0.26458332;stroke-opacity:1" />
      <text
         xml:space="preserve"
         style="font-style:normal;font-variant:normal;font-weight:normal;font-stretch:normal;font-size:11.28888893px;line-height:1.25;font-family:'Latin Modern Sans';-inkscape-font-specification:'Latin Modern Sans, Normal';font-variant-ligatures:normal;font-variant-caps:normal;font-variant-numeric:normal;font-feature-settings:normal;text-align:start;letter-spacing:0px;word-spacing:0px;writing-mode:lr-tb;text-anchor:start;fill:#007f7f;fill-opacity:1;stroke:none;stroke-width:0.26458332"
         x="47.155617"
         y="17.032291"
         id="text10022"><tspan
           sodipodi:role="line"
           id="tspan10020"
           x="47.155617"
           y="17.032291"
           style="font-style:normal;font-variant:normal;font-weight:normal;font-stretch:normal;font-size:11.28888893px;font-family:'Latin Modern Sans';-inkscape-font-specification:'Latin Modern Sans, Normal';font-variant-ligatures:normal;font-variant-caps:normal;font-variant-numeric:normal;font-feature-settings:normal;text-align:start;writing-mode:lr-tb;text-anchor:start;fill:#007f7f;fill-opacity:1;stroke-width:0.26458332">atomic <tspan
   id="tspan10018"
   style="font-style:normal;font-variant:normal;font-weight:normal;font-stretch:normal;font-size:11.28888893px;font-family:'Latin Modern Mono';-inkscape-font-specification:'Latin Modern Mono, Normal';font-variant-ligatures:normal;font-variant-caps:normal;font-variant-numeric:normal;font-feature-settings:normal;text-align:start;writing-mode:lr-tb;text-anchor:start;fill:#007f7f;fill-opacity:1">a</tspan></tspan></text>
    </g>
    <g
       id="g9983">
      <path
         inkscape:connector-curvature="0"
         d="m 52.311017,18.169268 c 0.0972,0.72365 0.0363,1.453742 0.0095,2.179921 -0.0085,0.909057 -0.06233,1.814377 -0.131509,2.7204 -0.05359,0.872441 -0.08607,1.744232 -0.202419,2.611188 -0.123312,0.738909 -0.199965,1.482712 -0.241613,2.230266 -0.02463,0.546556 -0.01923,1.093658 -0.02326,1.640566 0.01736,0.724365 -0.04045,1.44522 -0.09526,2.166684 -0.08007,0.809824 -0.225888,1.611469 -0.373935,2.411141 -0.12301,0.721765 -0.267658,1.4401 -0.368806,2.165413 -0.07401,0.685927 -0.09081,1.37503 -0.155636,2.061873 -0.155371,0.909709 -0.216299,1.829596 -0.30545,2.746723 -0.08581,0.716085 -0.146937,1.434619 -0.177195,2.155152 0.0047,0.570771 -0.05884,1.135761 -0.1495,1.6983 -0.113487,0.70276 -0.249399,1.40114 -0.389329,2.098989 -0.215842,0.88311 -0.384262,1.773272 -0.535151,2.669309 -0.121629,0.830744 -0.262795,1.657964 -0.41066,2.484404 -0.133599,0.971465 -0.332891,1.931884 -0.52097,2.893784 -0.234587,0.930114 -0.325848,1.882455 -0.43375,2.832376 -0.07598,0.786992 -0.178623,1.568984 -0.340847,2.342962 -0.110731,0.543925 -0.261837,1.076814 -0.344233,1.626266 -0.04579,0.409345 -0.138674,0.81211 -0.218969,1.215922 -0.08936,0.447612 -0.238917,0.878793 -0.327623,1.326608 -0.03625,0.196106 -0.04828,0.395115 -0.07325,0.592619 0,0 -2.509631,1.194004 -2.509631,1.194004 v 0 c 0.09034,-0.179018 0.05316,-0.387435 0.104746,-0.580057 0.07712,-0.454755 0.225184,-0.887301 0.330708,-1.334675 0.08502,-0.399222 0.146259,-0.803949 0.22947,-1.202801 0.07785,-0.561507 0.223062,-1.103265 0.352237,-1.653976 0.18469,-0.767416 0.310216,-1.544323 0.378963,-2.331318 0.12415,-0.95445 0.18955,-1.919343 0.435787,-2.854174 0.182465,-0.95853 0.398725,-1.9123 0.510871,-2.88285 0.137057,-0.828413 0.288832,-1.654104 0.410662,-2.485051 0.161108,-0.892929 0.307954,-1.787216 0.525079,-2.668966 0.124743,-0.694378 0.268965,-1.385062 0.370451,-2.083405 0.09681,-0.550695 0.161338,-1.108654 0.16251,-1.668226 0.03806,-0.731445 0.10876,-1.460189 0.203467,-2.18656 0.107617,-0.91047 0.141526,-1.82897 0.291129,-2.734882 0.06155,-0.689088 0.07726,-1.379613 0.143836,-2.068311 0.09271,-0.733375 0.254415,-1.454803 0.371871,-2.18435 0.157324,-0.79046 0.295603,-1.586071 0.393793,-2.386101 0.05188,-0.710193 0.103957,-1.418921 0.07008,-2.131563 -0.003,-0.554288 0.006,-1.108712 0.03384,-1.662376 0.04069,-0.757787 0.115149,-1.513474 0.251854,-2.260564 0.1236,-0.862421 0.166862,-1.728771 0.212799,-2.598102 0.07092,-0.902666 0.136443,-1.803839 0.137179,-2.71003 0.02096,-0.693765 0.08474,-1.401304 -0.05241,-2.086356 0,0 2.450552,-1.310176 2.450552,-1.310176 z"
         id="path9831"
         style="fill:#007f7f;fill-opacity:1;stroke:none;stroke-width:0.26458332;stroke-opacity:1" />
      <text
         xml:space="preserve"
         style="font-style:normal;font-variant:normal;font-weight:normal;font-stretch:normal;font-size:11.28888893px;line-height:1.25;font-family:'Latin Modern Sans';-inkscape-font-specification:'Latin Modern Sans, Normal';font-variant-ligatures:normal;font-variant-caps:normal;font-variant-numeric:normal;font-feature-settings:normal;text-align:start;letter-spacing:0px;word-spacing:0px;writing-mode:lr-tb;text-anchor:start;fill:#007f7f;fill-opacity:1;stroke:none;stroke-width:0.26458332"
         x="47.155617"
         y="17.032291"
         id="text9261"><tspan
           sodipodi:role="line"
           id="tspan9259"
           x="47.155617"
           y="17.032291"
           style="font-style:normal;font-variant:normal;font-weight:normal;font-stretch:normal;font-size:11.28888893px;font-family:'Latin Modern Sans';-inkscape-font-specification:'Latin Modern Sans, Normal';font-variant-ligatures:normal;font-variant-caps:normal;font-variant-numeric:normal;font-feature-settings:normal;text-align:start;writing-mode:lr-tb;text-anchor:start;fill:#007f7f;fill-opacity:1;stroke-width:0.26458332">atomic <tspan
   id="tspan9263"
   style="font-style:normal;font-variant:normal;font-weight:normal;font-stretch:normal;font-size:11.28888893px;font-family:'Latin Modern Mono';-inkscape-font-specification:'Latin Modern Mono, Normal';font-variant-ligatures:normal;font-variant-caps:normal;font-variant-numeric:normal;font-feature-settings:normal;text-align:start;writing-mode:lr-tb;text-anchor:start;fill:#007f7f;fill-opacity:1">a</tspan></tspan></text>
    </g>
    <g
       id="g10006">
      <path
         style="fill:#7f007f;fill-opacity:1;stroke:none;stroke-width:0.26458332;stroke-opacity:1"
         d="m 54.980226,30.954359 -2.476333,1.261939 c 0.02166,0.540374 0.01992,1.081432 0.02532,1.622123 0.0249,0.835339 -0.02881,1.67242 -0.132807,2.501139 -0.118838,0.876347 -0.1767,1.758446 -0.2651,2.638082 -0.109982,0.964443 -0.269512,1.919031 -0.438734,2.874243 -0.235122,1.037671 -0.321604,2.098956 -0.485241,3.148128 -0.249182,1.465744 -0.556286,2.920817 -0.850596,4.378029 -0.263848,1.441836 -0.579284,2.873666 -0.883666,4.307228 -0.166716,0.789229 -0.273558,1.58868 -0.311607,2.39417 -0.0273,0.694169 0.02038,1.388388 -0.02481,2.081527 -0.04995,0.77239 -0.187862,1.537221 -0.341582,2.294951 -0.172953,0.534281 -0.265976,1.084472 -0.380855,1.631942 -0.08302,0.478195 -0.227264,0.938945 -0.305924,1.418 -0.01644,0.396245 -0.145132,0.769242 -0.212392,1.157036 -0.02831,0.222896 -0.002,0.119581 -0.07183,0.311092 l 2.499587,-1.191141 c 0.04241,-0.219046 0.02236,-0.109445 0.05891,-0.329179 0.07843,-0.382619 0.161137,-0.762473 0.196888,-1.152384 0.09048,-0.472282 0.227557,-0.934289 0.303858,-1.409735 0.106973,-0.544724 0.225073,-1.085995 0.360185,-1.624706 0.141147,-0.768701 0.265536,-1.542661 0.315224,-2.323372 0.03062,-0.697534 0.0193,-1.395658 0.04444,-2.093412 0.03708,-0.781029 0.114197,-1.559203 0.267685,-2.32699 0.274108,-1.4255 0.560064,-2.848615 0.823206,-4.276224 0.310925,-1.472497 0.642667,-2.941451 0.911055,-4.422471 0.163227,-1.050344 0.26633,-2.110223 0.501261,-3.148644 0.177012,-0.961375 0.321255,-1.926332 0.438733,-2.896981 0.09347,-0.879219 0.152217,-1.761242 0.272335,-2.637565 0.09115,-0.843111 0.147423,-1.68987 0.136943,-2.538347 0.0054,-0.549369 0.0044,-1.099412 0.02584,-1.648478 z"
         id="path10000"
         inkscape:connector-curvature="0" />
      <text
         xml:space="preserve"
         style="font-style:normal;font-variant:normal;font-weight:normal;font-stretch:normal;font-size:11.28888893px;line-height:1.25;font-family:'Latin Modern Sans';-inkscape-font-specification:'Latin Modern Sans, Normal';font-variant-ligatures:normal;font-variant-caps:normal;font-variant-numeric:normal;font-feature-settings:normal;text-align:start;letter-spacing:0px;word-spacing:0px;writing-mode:lr-tb;text-anchor:start;fill:#7f007f;fill-opacity:1;stroke:none;stroke-width:0.26458332"
         x="47.155617"
         y="30.315586"
         id="text10004"><tspan
           sodipodi:role="line"
           id="tspan10002"
           x="47.155617"
           y="30.315586"
           style="font-style:normal;font-variant:normal;font-weight:normal;font-stretch:normal;font-size:11.28888893px;font-family:'Latin Modern Sans';-inkscape-font-specification:'Latin Modern Sans, Normal';font-variant-ligatures:normal;font-variant-caps:normal;font-variant-numeric:normal;font-feature-settings:normal;text-align:start;writing-mode:lr-tb;text-anchor:start;fill:#7f007f;fill-opacity:1;stroke-width:0.26458332">thread A</tspan></text>
    </g>
    <g
       id="g10014"
       transform="translate(24.341666)">
      <path
         style="fill:#ff7f00;fill-opacity:1;stroke:none;stroke-width:0.26458332;stroke-opacity:1"
         id="path10008"
         d="m 43.250164,31.927107 c 0.06168,0.519098 0.105723,1.038888 0.181015,1.556235 0.09109,0.56921 0.132858,1.142911 0.152017,1.718498 0.02037,0.599233 0.08064,1.198631 0.160414,1.79288 0.07808,0.638567 0.180297,1.27296 0.27841,1.908547 0.09376,0.54724 0.119933,1.100443 0.129154,1.654387 0.01185,0.71401 0.08794,1.424823 0.127698,2.137649 0.04326,0.899278 -0.04591,1.799262 -0.08911,2.697415 -0.06118,0.907465 -0.143322,1.812997 -0.296204,2.70986 -0.150645,0.888995 -0.370369,1.765792 -0.601284,2.637007 -0.241112,0.904129 -0.398494,1.826733 -0.554699,2.748288 -0.107219,0.67914 -0.227383,1.358365 -0.437499,2.013913 -0.178189,0.608555 -0.38436,1.209402 -0.546417,1.822564 -0.132205,0.655761 -0.19005,1.321263 -0.356823,1.970164 -0.102166,0.366956 -0.155138,0.743172 -0.285464,1.101836 -0.141684,0.276616 -0.284162,0.552312 -0.380955,0.848172 -0.05754,0.217075 -0.09205,0.440801 -0.09705,0.66539 0,0 -2.493148,1.24437 -2.493148,1.24437 v 0 c 0.03361,-0.240295 0.04013,-0.484201 0.09397,-0.721871 0.07371,-0.315711 0.195873,-0.610796 0.352613,-0.893998 0.215458,-0.314756 0.214601,-0.710067 0.331515,-1.064718 0.19404,-0.645834 0.303297,-1.302448 0.379793,-1.972489 0.144341,-0.621097 0.359243,-1.221314 0.524822,-1.836928 0.228233,-0.645827 0.386194,-1.317424 0.491763,-1.993834 0.164494,-0.927651 0.309533,-1.859942 0.550002,-2.772259 0.229246,-0.862582 0.440259,-1.73209 0.599292,-2.610348 0.160325,-0.888785 0.260453,-1.78386 0.32485,-2.684705 0.03334,-0.887574 0.117089,-1.776005 0.08268,-2.664105 -0.04057,-0.712647 -0.127521,-1.421958 -0.15512,-2.134356 -0.01378,-0.542792 -0.03372,-1.086415 -0.109455,-1.624795 -0.09454,-0.63706 -0.1959,-1.27216 -0.277802,-1.911019 -0.09241,-0.600181 -0.150143,-1.210606 -0.180687,-1.816373 -0.01831,-0.565389 -0.04792,-1.13099 -0.135998,-1.690599 -0.07987,-0.5077 -0.120901,-1.019139 -0.212847,-1.524602 0,0 2.450552,-1.310176 2.450552,-1.310176 z"
         inkscape:connector-curvature="0" />
      <text
         id="text10012"
         y="30.315586"
         x="2.2543371"
         style="font-style:normal;font-variant:normal;font-weight:normal;font-stretch:normal;font-size:11.28888893px;line-height:1.25;font-family:'Latin Modern Sans';-inkscape-font-specification:'Latin Modern Sans, Normal';font-variant-ligatures:normal;font-variant-caps:normal;font-variant-numeric:normal;font-feature-settings:normal;text-align:start;letter-spacing:0px;word-spacing:0px;writing-mode:lr-tb;text-anchor:start;fill:#ff7f00;fill-opacity:1;stroke:none;stroke-width:0.26458332"
         xml:space="preserve"><tspan
           style="font-style:normal;font-variant:normal;font-weight:normal;font-stretch:normal;font-size:11.28888893px;font-family:'Latin Modern Sans';-inkscape-font-specification:'Latin Modern Sans, Normal';font-variant-ligatures:normal;font-variant-caps:normal;font-variant-numeric:normal;font-feature-settings:normal;text-align:start;writing-mode:lr-tb;text-anchor:start;fill:#ff7f00;fill-opacity:1;stroke-width:0.26458332"
           y="30.315586"
           x="2.2543371"
           id="tspan10010"
           sodipodi:role="line">thread B</tspan></text>
    </g>
    <g
       id="g10032"
       transform="translate(24.341666)">
      <path
         inkscape:connector-curvature="0"
         id="path10026"
         d="m 54.980226,30.954359 -2.476333,1.261939 c 0.02166,0.540374 0.01992,1.081432 0.02532,1.622123 0.0249,0.835339 -0.02881,1.67242 -0.132807,2.501139 -0.118838,0.876347 -0.1767,1.758446 -0.2651,2.638082 -0.109982,0.964443 -0.269512,1.919031 -0.438734,2.874243 -0.235122,1.037671 -0.321604,2.098956 -0.485241,3.148128 -0.249182,1.465744 -0.556286,2.920817 -0.850596,4.378029 -0.263848,1.441836 -0.579284,2.873666 -0.883666,4.307228 -0.166716,0.789229 -0.273558,1.58868 -0.311607,2.39417 -0.0273,0.694169 0.02038,1.388388 -0.02481,2.081527 -0.04995,0.77239 -0.187862,1.537221 -0.341582,2.294951 -0.172953,0.534281 -0.265976,1.084472 -0.380855,1.631942 -0.08302,0.478195 -0.227264,0.938945 -0.305924,1.418 -0.01644,0.396245 -0.145132,0.769242 -0.212392,1.157036 -0.02831,0.222896 -0.002,0.119581 -0.07183,0.311092 l 2.499587,-1.191141 c 0.04241,-0.219046 0.02236,-0.109445 0.05891,-0.329179 0.07843,-0.382619 0.161137,-0.762473 0.196888,-1.152384 0.09048,-0.472282 0.227557,-0.934289 0.303858,-1.409735 0.106973,-0.544724 0.225073,-1.085995 0.360185,-1.624706 0.141147,-0.768701 0.265536,-1.542661 0.315224,-2.323372 0.03062,-0.697534 0.0193,-1.395658 0.04444,-2.093412 0.03708,-0.781029 0.114197,-1.559203 0.267685,-2.32699 0.274108,-1.4255 0.560064,-2.848615 0.823206,-4.276224 0.310925,-1.472497 0.642667,-2.941451 0.911055,-4.422471 0.163227,-1.050344 0.26633,-2.110223 0.501261,-3.148644 0.177012,-0.961375 0.321255,-1.926332 0.438733,-2.896981 0.09347,-0.879219 0.152217,-1.761242 0.272335,-2.637565 0.09115,-0.843111 0.147423,-1.68987 0.136943,-2.538347 0.0054,-0.549369 0.0044,-1.099412 0.02584,-1.648478 z"
         style="fill:#7f007f;fill-opacity:1;stroke:none;stroke-width:0.26458332;stroke-opacity:1" />
      <text
         id="text10030"
         y="30.315586"
         x="47.155617"
         style="font-style:normal;font-variant:normal;font-weight:normal;font-stretch:normal;font-size:11.28888893px;line-height:1.25;font-family:'Latin Modern Sans';-inkscape-font-specification:'Latin Modern Sans, Normal';font-variant-ligatures:normal;font-variant-caps:normal;font-variant-numeric:normal;font-feature-settings:normal;text-align:start;letter-spacing:0px;word-spacing:0px;writing-mode:lr-tb;text-anchor:start;fill:#7f007f;fill-opacity:1;stroke:none;stroke-width:0.26458332"
         xml:space="preserve"><tspan
           style="font-style:normal;font-variant:normal;font-weight:normal;font-stretch:normal;font-size:11.28888893px;font-family:'Latin Modern Sans';-inkscape-font-specification:'Latin Modern Sans, Normal';font-variant-ligatures:normal;font-variant-caps:normal;font-variant-numeric:normal;font-feature-settings:normal;text-align:start;writing-mode:lr-tb;text-anchor:start;fill:#7f007f;fill-opacity:1;stroke-width:0.26458332"
           y="30.315586"
           x="47.155617"
           id="tspan10028"
           sodipodi:role="line">thread A</tspan></text>
    </g>
    <g
       id="g9988">
      <path
         inkscape:connector-curvature="0"
         d="m 43.250164,31.927107 c 0.06168,0.519098 0.105723,1.038888 0.181015,1.556235 0.09109,0.56921 0.132858,1.142911 0.152017,1.718498 0.02037,0.599233 0.08064,1.198631 0.160414,1.79288 0.07808,0.638567 0.180297,1.27296 0.27841,1.908547 0.09376,0.54724 0.119933,1.100443 0.129154,1.654387 0.01185,0.71401 0.08794,1.424823 0.127698,2.137649 0.04326,0.899278 -0.04591,1.799262 -0.08911,2.697415 -0.06118,0.907465 -0.143322,1.812997 -0.296204,2.70986 -0.150645,0.888995 -0.370369,1.765792 -0.601284,2.637007 -0.241112,0.904129 -0.398494,1.826733 -0.554699,2.748288 -0.107219,0.67914 -0.227383,1.358365 -0.437499,2.013913 -0.178189,0.608555 -0.38436,1.209402 -0.546417,1.822564 -0.132205,0.655761 -0.19005,1.321263 -0.356823,1.970164 -0.102166,0.366956 -0.155138,0.743172 -0.285464,1.101836 -0.141684,0.276616 -0.284162,0.552312 -0.380955,0.848172 -0.05754,0.217075 -0.09205,0.440801 -0.09705,0.66539 0,0 -2.493148,1.24437 -2.493148,1.24437 v 0 c 0.03361,-0.240295 0.04013,-0.484201 0.09397,-0.721871 0.07371,-0.315711 0.195873,-0.610796 0.352613,-0.893998 0.215458,-0.314756 0.214601,-0.710067 0.331515,-1.064718 0.19404,-0.645834 0.303297,-1.302448 0.379793,-1.972489 0.144341,-0.621097 0.359243,-1.221314 0.524822,-1.836928 0.228233,-0.645827 0.386194,-1.317424 0.491763,-1.993834 0.164494,-0.927651 0.309533,-1.859942 0.550002,-2.772259 0.229246,-0.862582 0.440259,-1.73209 0.599292,-2.610348 0.160325,-0.888785 0.260453,-1.78386 0.32485,-2.684705 0.03334,-0.887574 0.117089,-1.776005 0.08268,-2.664105 -0.04057,-0.712647 -0.127521,-1.421958 -0.15512,-2.134356 -0.01378,-0.542792 -0.03372,-1.086415 -0.109455,-1.624795 -0.09454,-0.63706 -0.1959,-1.27216 -0.277802,-1.911019 -0.09241,-0.600181 -0.150143,-1.210606 -0.180687,-1.816373 -0.01831,-0.565389 -0.04792,-1.13099 -0.135998,-1.690599 -0.07987,-0.5077 -0.120901,-1.019139 -0.212847,-1.524602 0,0 2.450552,-1.310176 2.450552,-1.310176 z"
         id="path9253"
         style="fill:#ff7f00;fill-opacity:1;stroke:none;stroke-width:0.26458332;stroke-opacity:1" />
      <text
         xml:space="preserve"
         style="font-style:normal;font-variant:normal;font-weight:normal;font-stretch:normal;font-size:11.28888893px;line-height:1.25;font-family:'Latin Modern Sans';-inkscape-font-specification:'Latin Modern Sans, Normal';font-variant-ligatures:normal;font-variant-caps:normal;font-variant-numeric:normal;font-feature-settings:normal;text-align:start;letter-spacing:0px;word-spacing:0px;writing-mode:lr-tb;text-anchor:start;fill:#ff7f00;fill-opacity:1;stroke:none;stroke-width:0.26458332"
         x="2.2543371"
         y="30.315586"
         id="text4711"><tspan
           sodipodi:role="line"
           id="tspan4709"
           x="2.2543371"
           y="30.315586"
           style="font-style:normal;font-variant:normal;font-weight:normal;font-stretch:normal;font-size:11.28888893px;font-family:'Latin Modern Sans';-inkscape-font-specification:'Latin Modern Sans, Normal';font-variant-ligatures:normal;font-variant-caps:normal;font-variant-numeric:normal;font-feature-settings:normal;text-align:start;writing-mode:lr-tb;text-anchor:start;fill:#ff7f00;fill-opacity:1;stroke-width:0.26458332">thread B</tspan></text>
    </g>
    <text
       xml:space="preserve"
       style="font-style:normal;font-variant:normal;font-weight:normal;font-stretch:normal;font-size:11.28888893px;line-height:1.25;font-family:sans-serif;-inkscape-font-specification:'sans-serif, Normal';font-variant-ligatures:normal;font-variant-caps:normal;font-variant-numeric:normal;font-feature-settings:normal;text-align:start;letter-spacing:0px;word-spacing:0px;writing-mode:lr-tb;text-anchor:start;fill:#000000;fill-opacity:1;stroke:none;stroke-width:0.26458332"
       x="18.409767"
       y="51.153675"
       id="text3715"><tspan
         sodipodi:role="line"
         id="tspan3713"
         x="18.409767"
         y="51.153675"
         style="font-style:normal;font-variant:normal;font-weight:normal;font-stretch:normal;font-size:11.28888893px;font-family:'Latin Modern Sans';-inkscape-font-specification:'Latin Modern Sans, Normal';font-variant-ligatures:normal;font-variant-caps:normal;font-variant-numeric:normal;font-feature-settings:normal;text-align:start;writing-mode:lr-tb;text-anchor:start;stroke-width:0.26458332"><tspan
   style="font-style:normal;font-variant:normal;font-weight:normal;font-stretch:normal;font-size:11.28888893px;font-family:'Latin Modern Mono';-inkscape-font-specification:'Latin Modern Mono, Normal';font-variant-ligatures:normal;font-variant-caps:normal;font-variant-numeric:normal;font-feature-settings:normal;text-align:start;writing-mode:lr-tb;text-anchor:start"
   id="tspan3743">x</tspan> :</tspan></text>
    <text
       xml:space="preserve"
       style="font-style:normal;font-weight:normal;font-size:10.58333302px;line-height:1.25;font-family:sans-serif;letter-spacing:0px;word-spacing:0px;fill:#000000;fill-opacity:1;stroke:none;stroke-width:0.26458332"
       x="78.042702"
       y="107.77317"
       id="text3731"><tspan
         sodipodi:role="line"
         id="tspan3729"
         x="78.042702"
         y="117.13694"
         style="stroke-width:0.26458332" /></text>
    <g
       id="g4657">
      <circle
         style="fill:#e6e6e6;fill-opacity:1;stroke:none;stroke-width:0.26458332"
         r="7.6540179"
         cy="49.520088"
         cx="47.908482"
         id="path3830" />
      <g
         transform="translate(6.4255952)"
         id="g3788">
        <text
           xml:space="preserve"
           style="font-style:oblique;font-variant:normal;font-weight:normal;font-stretch:normal;font-size:11.28888893px;line-height:1.25;font-family:'Latin Modern Sans';-inkscape-font-specification:'Latin Modern Sans, Oblique';font-variant-ligatures:normal;font-variant-caps:normal;font-variant-numeric:normal;font-feature-settings:normal;text-align:start;letter-spacing:0px;word-spacing:0px;writing-mode:lr-tb;text-anchor:start;fill:#000000;fill-opacity:1;stroke:none;stroke-width:0.26458332"
           x="36.724724"
           y="51.153675"
           id="text3727"><tspan
             sodipodi:role="line"
             id="tspan3725"
             x="36.724724"
             y="51.153675"
             style="font-style:oblique;font-variant:normal;font-weight:normal;font-stretch:normal;font-size:11.28888893px;font-family:'Latin Modern Sans';-inkscape-font-specification:'Latin Modern Sans, Oblique';font-variant-ligatures:normal;font-variant-caps:normal;font-variant-numeric:normal;font-feature-settings:normal;text-align:start;writing-mode:lr-tb;text-anchor:start;stroke-width:0.26458332">x </tspan></text>
        <text
           xml:space="preserve"
           style="font-style:oblique;font-variant:normal;font-weight:normal;font-stretch:normal;font-size:8.46666622px;line-height:1.25;font-family:'Latin Modern Sans';-inkscape-font-specification:'Latin Modern Sans, Oblique';font-variant-ligatures:normal;font-variant-caps:normal;font-variant-numeric:normal;font-feature-settings:normal;text-align:start;letter-spacing:0px;word-spacing:0px;writing-mode:lr-tb;text-anchor:start;fill:#000000;fill-opacity:1;stroke:none;stroke-width:0.26458332"
           x="41.199406"
           y="54.339287"
           id="text3741"><tspan
             sodipodi:role="line"
             id="tspan3739"
             x="41.199406"
             y="54.339287"
             style="font-style:oblique;font-variant:normal;font-weight:normal;font-stretch:normal;font-size:8.46666622px;font-family:'Latin Modern Sans';-inkscape-font-specification:'Latin Modern Sans, Oblique';font-variant-ligatures:normal;font-variant-caps:normal;font-variant-numeric:normal;font-feature-settings:normal;text-align:start;writing-mode:lr-tb;text-anchor:start;stroke-width:0.26458332">0</tspan></text>
      </g>
    </g>
    <flowRoot
       xml:space="preserve"
       id="flowRoot3747"
       style="font-style:normal;font-weight:normal;font-size:40px;line-height:1.25;font-family:sans-serif;letter-spacing:0px;word-spacing:0px;fill:#000000;fill-opacity:1;stroke:none"
       transform="scale(0.26458333)"><flowRegion
         id="flowRegion3749"><rect
           id="rect3751"
           width="91.428574"
           height="152.14285"
           x="41.42857"
           y="157.51968" /></flowRegion><flowPara
         id="flowPara3753" /></flowRoot>    <g
       id="g4665">
      <circle
         id="circle4637"
         cx="71.909966"
         cy="49.520088"
         r="7.6540179"
         style="fill:#e6e6e6;fill-opacity:1;stroke:none;stroke-width:0.26458332" />
      <g
         transform="translate(30.427083)"
         id="g3798">
        <text
           id="text3792"
           y="51.153675"
           x="36.724724"
           style="font-style:oblique;font-variant:normal;font-weight:normal;font-stretch:normal;font-size:11.28888893px;line-height:1.25;font-family:'Latin Modern Sans';-inkscape-font-specification:'Latin Modern Sans, Oblique';font-variant-ligatures:normal;font-variant-caps:normal;font-variant-numeric:normal;font-feature-settings:normal;text-align:start;letter-spacing:0px;word-spacing:0px;writing-mode:lr-tb;text-anchor:start;fill:#000000;fill-opacity:1;stroke:none;stroke-width:0.26458332"
           xml:space="preserve"><tspan
             style="font-style:oblique;font-variant:normal;font-weight:normal;font-stretch:normal;font-size:11.28888893px;font-family:'Latin Modern Sans';-inkscape-font-specification:'Latin Modern Sans, Oblique';font-variant-ligatures:normal;font-variant-caps:normal;font-variant-numeric:normal;font-feature-settings:normal;text-align:start;writing-mode:lr-tb;text-anchor:start;stroke-width:0.26458332"
             y="51.153675"
             x="36.724724"
             id="tspan3790"
             sodipodi:role="line">x </tspan></text>
        <text
           id="text3796"
           y="54.339287"
           x="41.199406"
           style="font-style:oblique;font-variant:normal;font-weight:normal;font-stretch:normal;font-size:8.46666622px;line-height:1.25;font-family:'Latin Modern Sans';-inkscape-font-specification:'Latin Modern Sans, Oblique';font-variant-ligatures:normal;font-variant-caps:normal;font-variant-numeric:normal;font-feature-settings:normal;text-align:start;letter-spacing:0px;word-spacing:0px;writing-mode:lr-tb;text-anchor:start;fill:#000000;fill-opacity:1;stroke:none;stroke-width:0.26458332"
           xml:space="preserve"><tspan
             style="font-style:oblique;font-variant:normal;font-weight:normal;font-stretch:normal;font-size:8.46666622px;font-family:'Latin Modern Sans';-inkscape-font-specification:'Latin Modern Sans, Oblique';font-variant-ligatures:normal;font-variant-caps:normal;font-variant-numeric:normal;font-feature-settings:normal;text-align:start;writing-mode:lr-tb;text-anchor:start;stroke-width:0.26458332"
             y="54.339287"
             x="41.199406"
             id="tspan3794"
             sodipodi:role="line">1</tspan></text>
      </g>
    </g>
    <rect
       style="opacity:0.93999999;fill:none;fill-opacity:1;stroke:none;stroke-width:0.26458332;stroke-opacity:1"
       id="rect5158"
       width="114.47"
       height="59.596001"
       x="0.46882597"
       y="7.6380692" />
  </g>
</svg>
