<?xml version="1.0" encoding="UTF-8" standalone="no"?>
<!-- Created with Inkscape (http://www.inkscape.org/) -->

<svg
   xmlns:dc="http://purl.org/dc/elements/1.1/"
   xmlns:cc="http://creativecommons.org/ns#"
   xmlns:rdf="http://www.w3.org/1999/02/22-rdf-syntax-ns#"
   xmlns:svg="http://www.w3.org/2000/svg"
   xmlns="http://www.w3.org/2000/svg"
   xmlns:sodipodi="http://sodipodi.sourceforge.net/DTD/sodipodi-0.dtd"
   xmlns:inkscape="http://www.inkscape.org/namespaces/inkscape"
   width="101.48579mm"
   height="71.483398mm"
   viewBox="0 0 101.48579 71.483399"
   version="1.1"
   id="svg8"
   inkscape:version="0.92.4 5da689c313, 2019-01-14"
   sodipodi:docname="store_na_0b.svg"
   inkscape:export-filename="/home/glen/phd/aarhus19/store_na_0.png"
   inkscape:export-xdpi="96"
   inkscape:export-ydpi="96">
  <defs
     id="defs2" />
  <sodipodi:namedview
     id="base"
     pagecolor="#ffffff"
     bordercolor="#666666"
     borderopacity="1.0"
     inkscape:pageopacity="0.0"
     inkscape:pageshadow="2"
     inkscape:zoom="1.4142136"
     inkscape:cx="-156.53193"
     inkscape:cy="129.73788"
     inkscape:document-units="mm"
     inkscape:current-layer="layer1"
     showgrid="false"
     inkscape:window-width="1918"
     inkscape:window-height="1042"
     inkscape:window-x="0"
     inkscape:window-y="37"
     inkscape:window-maximized="0"
     fit-margin-top="2"
     fit-margin-left="2"
     fit-margin-right="2"
     fit-margin-bottom="1" />
  <metadata
     id="metadata5">
    <rdf:RDF>
      <cc:Work
         rdf:about="">
        <dc:format>image/svg+xml</dc:format>
        <dc:type
           rdf:resource="http://purl.org/dc/dcmitype/StillImage" />
        <dc:title />
      </cc:Work>
    </rdf:RDF>
  </metadata>
  <g
     inkscape:label="Calque 1"
     inkscape:groupmode="layer"
     id="layer1"
     transform="translate(-0.46882596,-20.481097)">
    <path
       style="fill:#ff7f00;fill-opacity:1;stroke:none;stroke-width:0.26458332;stroke-opacity:1"
       id="path4647"
       d="m 44.551447,31.204282 c 0.179059,1.174641 0.33482,2.350505 0.546333,3.520098 0.222361,1.085083 0.470829,2.163281 0.654476,3.255995 0.167568,1.317683 0.252045,2.644499 0.347803,3.968927 0.139628,1.660779 0.284651,3.319632 0.358134,4.984988 0.07412,2.266603 0.04008,4.534926 0.02133,6.802141 -0.04626,3.160265 0.03868,6.319692 0.05264,9.479833 0.08685,2.55629 -0.133744,5.093798 -0.537734,7.614428 -0.358034,2.327436 -0.97118,4.60018 -1.545008,6.879881 -0.389062,1.550593 -0.684628,3.122329 -0.998773,4.689229 -0.102378,0.72804 -0.29523,1.435856 -0.467159,2.148673 -0.08675,0.474414 -0.212807,0.940078 -0.286403,1.416902 -0.130189,1.152027 -0.780058,0.684088 -2.546866,1.697606 0,0 2.233125,-1.710444 2.233125,-1.710444 v 0 c -0.77122,0.462264 -1.547727,0.915821 -2.313659,1.386795 -0.02635,0.01619 0.0711,0.0041 0.09062,-0.01984 0.02729,-0.03354 0.019,-0.08436 0.0285,-0.126544 0.08266,-0.485855 0.204777,-0.961166 0.301381,-1.443842 0.157282,-0.727157 0.416309,-1.430303 0.52114,-2.170314 0.358349,-1.585928 0.713888,-3.173023 1.104617,-4.7513 0.581046,-2.277941 1.222155,-4.544309 1.581451,-6.872264 0.407813,-2.516661 0.650142,-5.05129 0.607319,-7.604664 0.0283,-3.157961 -0.05942,-6.314252 -0.06546,-9.472221 -0.02572,-2.245082 -0.0469,-4.490725 -0.128374,-6.734625 -0.07712,-1.659363 -0.217942,-3.312617 -0.373327,-4.966263 -0.11966,-1.30892 -0.206049,-2.621804 -0.382733,-3.924827 -0.183668,-1.093655 -0.419491,-2.176507 -0.636899,-3.263614 -0.192919,-1.156891 -0.334267,-2.327791 -0.622412,-3.464954 0,0 2.455924,-1.319774 2.455924,-1.319774 z"
       inkscape:connector-curvature="0" />
    <path
       style="fill:#7f007f;fill-opacity:1;stroke:none;stroke-width:0.26458332;stroke-opacity:1"
       id="path4649"
       d="m 52.782915,31.127243 c 0.01069,0.881298 0.06581,1.762157 0.07686,2.644852 0.06464,2.554462 0.09902,5.109506 0.13194,7.664534 0.02614,2.645273 0.05871,5.29041 0.06363,7.935831 0.0209,2.808081 -0.04983,5.614495 -0.125484,8.421195 -0.107273,3.078123 -0.156795,6.157629 -0.38262,9.230024 -0.110937,1.955848 -0.401968,3.892465 -0.711694,5.824532 -0.227042,1.531723 -0.464254,3.062227 -0.728761,4.587976 -0.24824,1.32044 -0.554834,2.629212 -0.782357,3.953565 -0.16656,0.972021 -0.390845,1.932758 -0.659691,2.881249 -0.29615,0.889746 -0.611012,1.775928 -0.9453,2.652625 -0.203616,0.485299 -0.3716,0.991378 -0.626674,1.453126 -0.162039,0.274249 -0.39057,0.494311 -0.598688,0.731589 -0.615178,0.908444 -1.41649,0.948134 -2.66341,1.678609 0,0 2.185075,-1.760503 2.185075,-1.760503 v 0 c -5.063728,2.98695 -2.705973,1.780384 -2.093336,1.202404 0.157866,-0.286633 0.436073,-0.459657 0.609679,-0.735658 0.341617,-0.400634 0.460185,-0.95445 0.695651,-1.417121 0.361484,-0.863865 0.663223,-1.754711 0.976905,-2.636205 0.269139,-0.944878 0.498245,-1.900124 0.688083,-2.864083 0.240385,-1.330267 0.561097,-2.64396 0.818888,-3.970909 0.26869,-1.527265 0.511601,-3.059372 0.74348,-4.592577 0.332163,-1.943102 0.665355,-3.888213 0.82179,-5.855337 0.282988,-3.074482 0.371009,-6.158799 0.446426,-9.244539 0.03579,-2.791923 0.08492,-5.583484 0.04756,-8.37575 0.0011,-2.653401 0.02503,-5.306941 -0.0087,-7.960225 -0.03585,-2.52928 -0.08904,-5.059569 -0.280924,-7.582755 -0.0455,-0.866463 -0.115964,-1.730134 -0.197054,-2.593279 0,0 2.498736,-1.27317 2.498736,-1.27317 z"
       inkscape:connector-curvature="0" />
    <text
       xml:space="preserve"
       style="font-style:normal;font-variant:normal;font-weight:normal;font-stretch:normal;font-size:11.28888893px;line-height:1.25;font-family:sans-serif;-inkscape-font-specification:'sans-serif, Normal';font-variant-ligatures:normal;font-variant-caps:normal;font-variant-numeric:normal;font-feature-settings:normal;text-align:start;letter-spacing:0px;word-spacing:0px;writing-mode:lr-tb;text-anchor:start;fill:#000000;fill-opacity:1;stroke:none;stroke-width:0.26458332"
       x="18.409767"
       y="51.153675"
       id="text3715"><tspan
         sodipodi:role="line"
         id="tspan3713"
         x="18.409767"
         y="51.153675"
         style="font-style:normal;font-variant:normal;font-weight:normal;font-stretch:normal;font-size:11.28888893px;font-family:'Latin Modern Sans';-inkscape-font-specification:'Latin Modern Sans, Normal';font-variant-ligatures:normal;font-variant-caps:normal;font-variant-numeric:normal;font-feature-settings:normal;text-align:start;writing-mode:lr-tb;text-anchor:start;stroke-width:0.26458332"><tspan
   style="font-style:normal;font-variant:normal;font-weight:normal;font-stretch:normal;font-size:11.28888893px;font-family:'Latin Modern Mono';-inkscape-font-specification:'Latin Modern Mono, Normal';font-variant-ligatures:normal;font-variant-caps:normal;font-variant-numeric:normal;font-feature-settings:normal;text-align:start;writing-mode:lr-tb;text-anchor:start"
   id="tspan3743">x</tspan> :</tspan></text>
    <text
       xml:space="preserve"
       style="font-style:normal;font-variant:normal;font-weight:normal;font-stretch:normal;font-size:11.28888893px;line-height:1.25;font-family:sans-serif;-inkscape-font-specification:'sans-serif, Normal';font-variant-ligatures:normal;font-variant-caps:normal;font-variant-numeric:normal;font-feature-settings:normal;text-align:start;letter-spacing:0px;word-spacing:0px;writing-mode:lr-tb;text-anchor:start;fill:#000000;fill-opacity:1;stroke:none;stroke-width:0.26458332"
       x="18.409767"
       y="73.02813"
       id="text3719"><tspan
         sodipodi:role="line"
         id="tspan3717"
         x="18.409767"
         y="73.02813"
         style="font-style:normal;font-variant:normal;font-weight:normal;font-stretch:normal;font-size:11.28888893px;font-family:'Latin Modern Sans';-inkscape-font-specification:'Latin Modern Sans, Normal';font-variant-ligatures:normal;font-variant-caps:normal;font-variant-numeric:normal;font-feature-settings:normal;text-align:start;writing-mode:lr-tb;text-anchor:start;stroke-width:0.26458332"><tspan
   style="font-style:normal;font-variant:normal;font-weight:normal;font-stretch:normal;font-size:11.28888893px;font-family:'Latin Modern Mono';-inkscape-font-specification:'Latin Modern Mono, Normal';font-variant-ligatures:normal;font-variant-caps:normal;font-variant-numeric:normal;font-feature-settings:normal;text-align:start;writing-mode:lr-tb;text-anchor:start"
   id="tspan3745">y</tspan> :</tspan></text>
    <text
       xml:space="preserve"
       style="font-style:normal;font-weight:normal;font-size:10.58333302px;line-height:1.25;font-family:sans-serif;letter-spacing:0px;word-spacing:0px;fill:#000000;fill-opacity:1;stroke:none;stroke-width:0.26458332"
       x="78.042702"
       y="107.77317"
       id="text3731"><tspan
         sodipodi:role="line"
         id="tspan3729"
         x="78.042702"
         y="117.13694"
         style="stroke-width:0.26458332" /></text>
    <g
       id="g4657">
      <circle
         style="fill:#e6e6e6;fill-opacity:1;stroke:none;stroke-width:0.26458332"
         r="7.6540179"
         cy="49.520088"
         cx="47.908482"
         id="path3830" />
      <g
         transform="translate(6.4255952)"
         id="g3788">
        <text
           xml:space="preserve"
           style="font-style:oblique;font-variant:normal;font-weight:normal;font-stretch:normal;font-size:11.28888893px;line-height:1.25;font-family:'Latin Modern Sans';-inkscape-font-specification:'Latin Modern Sans, Oblique';font-variant-ligatures:normal;font-variant-caps:normal;font-variant-numeric:normal;font-feature-settings:normal;text-align:start;letter-spacing:0px;word-spacing:0px;writing-mode:lr-tb;text-anchor:start;fill:#000000;fill-opacity:1;stroke:none;stroke-width:0.26458332"
           x="36.724724"
           y="51.153675"
           id="text3727"><tspan
             sodipodi:role="line"
             id="tspan3725"
             x="36.724724"
             y="51.153675"
             style="font-style:oblique;font-variant:normal;font-weight:normal;font-stretch:normal;font-size:11.28888893px;font-family:'Latin Modern Sans';-inkscape-font-specification:'Latin Modern Sans, Oblique';font-variant-ligatures:normal;font-variant-caps:normal;font-variant-numeric:normal;font-feature-settings:normal;text-align:start;writing-mode:lr-tb;text-anchor:start;stroke-width:0.26458332">x </tspan></text>
        <text
           xml:space="preserve"
           style="font-style:oblique;font-variant:normal;font-weight:normal;font-stretch:normal;font-size:8.46666622px;line-height:1.25;font-family:'Latin Modern Sans';-inkscape-font-specification:'Latin Modern Sans, Oblique';font-variant-ligatures:normal;font-variant-caps:normal;font-variant-numeric:normal;font-feature-settings:normal;text-align:start;letter-spacing:0px;word-spacing:0px;writing-mode:lr-tb;text-anchor:start;fill:#000000;fill-opacity:1;stroke:none;stroke-width:0.26458332"
           x="41.199406"
           y="54.339287"
           id="text3741"><tspan
             sodipodi:role="line"
             id="tspan3739"
             x="41.199406"
             y="54.339287"
             style="font-style:oblique;font-variant:normal;font-weight:normal;font-stretch:normal;font-size:8.46666622px;font-family:'Latin Modern Sans';-inkscape-font-specification:'Latin Modern Sans, Oblique';font-variant-ligatures:normal;font-variant-caps:normal;font-variant-numeric:normal;font-feature-settings:normal;text-align:start;writing-mode:lr-tb;text-anchor:start;stroke-width:0.26458332">0</tspan></text>
      </g>
    </g>
    <flowRoot
       xml:space="preserve"
       id="flowRoot3747"
       style="font-style:normal;font-weight:normal;font-size:40px;line-height:1.25;font-family:sans-serif;letter-spacing:0px;word-spacing:0px;fill:#000000;fill-opacity:1;stroke:none"
       transform="scale(0.26458333)"><flowRegion
         id="flowRegion3749"><rect
           id="rect3751"
           width="91.428574"
           height="152.14285"
           x="41.42857"
           y="157.51968" /></flowRegion><flowPara
         id="flowPara3753" /></flowRoot>    <g
       id="g4681">
      <circle
         style="fill:#e6e6e6;fill-opacity:1;stroke:none;stroke-width:0.26458332"
         r="7.6540179"
         cy="71.442711"
         cx="47.908482"
         id="circle4639" />
      <g
         id="g3818"
         transform="translate(6.8035719,21.733631)">
        <text
           id="text3812"
           y="51.153675"
           x="36.724724"
           style="font-style:oblique;font-variant:normal;font-weight:normal;font-stretch:normal;font-size:11.28888893px;line-height:1.25;font-family:'Latin Modern Sans';-inkscape-font-specification:'Latin Modern Sans, Oblique';font-variant-ligatures:normal;font-variant-caps:normal;font-variant-numeric:normal;font-feature-settings:normal;text-align:start;letter-spacing:0px;word-spacing:0px;writing-mode:lr-tb;text-anchor:start;fill:#000000;fill-opacity:1;stroke:none;stroke-width:0.26458332"
           xml:space="preserve"><tspan
             style="font-style:oblique;font-variant:normal;font-weight:normal;font-stretch:normal;font-size:11.28888893px;font-family:'Latin Modern Sans';-inkscape-font-specification:'Latin Modern Sans, Oblique';font-variant-ligatures:normal;font-variant-caps:normal;font-variant-numeric:normal;font-feature-settings:normal;text-align:start;writing-mode:lr-tb;text-anchor:start;stroke-width:0.26458332"
             y="51.153675"
             x="36.724724"
             id="tspan3810"
             sodipodi:role="line">y </tspan></text>
        <text
           id="text3816"
           y="54.339287"
           x="40.065475"
           style="font-style:oblique;font-variant:normal;font-weight:normal;font-stretch:normal;font-size:8.46666622px;line-height:1.25;font-family:'Latin Modern Sans';-inkscape-font-specification:'Latin Modern Sans, Oblique';font-variant-ligatures:normal;font-variant-caps:normal;font-variant-numeric:normal;font-feature-settings:normal;text-align:start;letter-spacing:0px;word-spacing:0px;writing-mode:lr-tb;text-anchor:start;fill:#000000;fill-opacity:1;stroke:none;stroke-width:0.26458332"
           xml:space="preserve"><tspan
             style="font-style:oblique;font-variant:normal;font-weight:normal;font-stretch:normal;font-size:8.46666622px;font-family:'Latin Modern Sans';-inkscape-font-specification:'Latin Modern Sans, Oblique';font-variant-ligatures:normal;font-variant-caps:normal;font-variant-numeric:normal;font-feature-settings:normal;text-align:start;writing-mode:lr-tb;text-anchor:start;stroke-width:0.26458332"
             y="54.339287"
             x="40.065475"
             id="tspan3814"
             sodipodi:role="line">0</tspan></text>
      </g>
    </g>
    <text
       xml:space="preserve"
       style="font-style:normal;font-variant:normal;font-weight:normal;font-stretch:normal;font-size:11.28888893px;line-height:1.25;font-family:'Latin Modern Sans';-inkscape-font-specification:'Latin Modern Sans, Normal';font-variant-ligatures:normal;font-variant-caps:normal;font-variant-numeric:normal;font-feature-settings:normal;text-align:start;letter-spacing:0px;word-spacing:0px;writing-mode:lr-tb;text-anchor:start;fill:#7f007f;fill-opacity:1;stroke:none;stroke-width:0.26458332"
       x="47.155617"
       y="30.315586"
       id="text4707"><tspan
         sodipodi:role="line"
         id="tspan4705"
         x="47.155617"
         y="30.315586"
         style="font-style:normal;font-variant:normal;font-weight:normal;font-stretch:normal;font-size:11.28888893px;font-family:'Latin Modern Sans';-inkscape-font-specification:'Latin Modern Sans, Normal';font-variant-ligatures:normal;font-variant-caps:normal;font-variant-numeric:normal;font-feature-settings:normal;text-align:start;writing-mode:lr-tb;text-anchor:start;fill:#7f007f;fill-opacity:1;stroke-width:0.26458332">thread A</tspan></text>
    <text
       id="text4711"
       y="30.315586"
       x="2.2543371"
       style="font-style:normal;font-variant:normal;font-weight:normal;font-stretch:normal;font-size:11.28888893px;line-height:1.25;font-family:'Latin Modern Sans';-inkscape-font-specification:'Latin Modern Sans, Normal';font-variant-ligatures:normal;font-variant-caps:normal;font-variant-numeric:normal;font-feature-settings:normal;text-align:start;letter-spacing:0px;word-spacing:0px;writing-mode:lr-tb;text-anchor:start;fill:#ff7f00;fill-opacity:1;stroke:none;stroke-width:0.26458332"
       xml:space="preserve"><tspan
         style="font-style:normal;font-variant:normal;font-weight:normal;font-stretch:normal;font-size:11.28888893px;font-family:'Latin Modern Sans';-inkscape-font-specification:'Latin Modern Sans, Normal';font-variant-ligatures:normal;font-variant-caps:normal;font-variant-numeric:normal;font-feature-settings:normal;text-align:start;writing-mode:lr-tb;text-anchor:start;fill:#ff7f00;fill-opacity:1;stroke-width:0.26458332"
         y="30.315586"
         x="2.2543371"
         id="tspan4709"
         sodipodi:role="line">thread B</tspan></text>
    <rect
       style="opacity:0.93999999;fill:none;fill-opacity:1;stroke:none;stroke-width:0.26458332;stroke-opacity:1"
       id="rect6022"
       width="101.48601"
       height="71.483002"
       x="0.46882597"
       y="20.481096" />
  </g>
</svg>
